
avrdude.exe: Version 6.3, compiled on Jan 17 2017 at 12:00:53
             Copyright (c) 2000-2005 Brian Dean, http://www.bdmicro.com/
             Copyright (c) 2007-2014 Joerg Wunsch

             System wide configuration file is "avrdude/etc/avrdude.conf"

             Using Port                    : COM15
             Using Programmer              : arduino
             Overriding Baud Rate          : 57600
             AVR Part                      : ATmega328P
             Chip Erase delay              : 9000 us
             PAGEL                         : PD7
             BS2                           : PC2
             RESET disposition             : dedicated
             RETRY pulse                   : SCK
             serial program mode           : yes
             parallel program mode         : yes
             Timeout                       : 200
             StabDelay                     : 100
             CmdexeDelay                   : 25
             SyncLoops                     : 32
             ByteDelay                     : 0
             PollIndex                     : 3
             PollValue                     : 0x53
             Memory Detail                 :

                                      Block Poll               Page                       Polled
               Memory Type Mode Delay Size  Indx Paged  Size   Size #Pages MinW  MaxW   ReadBack
               ----------- ---- ----- ----- ---- ------ ------ ---- ------ ----- ----- ---------
               eeprom        65    20     4    0 no       1024    4      0  3600  3600 0xff 0xff
               flash         65     6   128    0 yes     32768  128    256  4500  4500 0xff 0xff
               lfuse          0     0     0    0 no          1    0      0  4500  4500 0x00 0x00
               hfuse          0     0     0    0 no          1    0      0  4500  4500 0x00 0x00
               efuse          0     0     0    0 no          1    0      0  4500  4500 0x00 0x00
               lock           0     0     0    0 no          1    0      0  4500  4500 0x00 0x00
               calibration    0     0     0    0 no          1    0      0     0     0 0x00 0x00
               signature      0     0     0    0 no          3    0      0     0     0 0x00 0x00

             Programmer Type : Arduino
             Description     : Arduino
             Hardware Version: 2
             Firmware Version: 1.16
             Vtarget         : 0.0 V
             Varef           : 0.0 V
             Oscillator      : Off
             SCK period      : 0.1 us

avrdude.exe: AVR device initialized and ready to accept instructions

Reading | ################################################## | 100% 0.00s

avrdude.exe: Device signature = 0x1e950f (probably m328p)
avrdude.exe: reading input file "Hexfiles/Romantic_Red.ino.hex"
avrdude.exe: writing flash (3306 bytes):

Writing | ################################################## | 100% 0.93s

avrdude.exe: 3306 bytes of flash written
avrdude.exe: verifying flash memory against Hexfiles/Romantic_Red.ino.hex:
avrdude.exe: load data flash data from input file Hexfiles/Romantic_Red.ino.hex:
avrdude.exe: input file Hexfiles/Romantic_Red.ino.hex contains 3306 bytes
avrdude.exe: reading on-chip flash data:

Reading | ################################################## | 100% 0.69s

avrdude.exe: verifying ...
avrdude.exe: 3306 bytes of flash verified

avrdude.exe done.  Thank you.

