:100000000C945E000C9486000C9486000C94860080
:100010000C9486000C9486000C9486000C94860048
:100020000C9486000C9486000C9486000C94860038
:100030000C9486000C9486000C9486000C94860028
:100040000C9464010C9486000C9486000C94860039
:100050000C9486000C9486000C9486000C94860008
:100060000C9486000C948600000000080002010039
:100070000003040700000000000000000000000072
:10008000250028002B0000000000240027002A0083
:10009000040404040404040402020202020203032E
:1000A0000303030301020408102040800102040836
:1000B00010200102040810205303880311241FBEDE
:1000C000CFEFD8E0DEBFCDBF21E0A6E0B1E001C0B8
:1000D0001D92A332B207E1F711E0A0E0B1E0EAE43B
:1000E000FDE002C005900D92A630B107D9F710E0EF
:1000F000CDE5D0E004C02197FE010E946505CC3516
:10010000D107C9F70E94AE010C9498060C94000028
:100110003FB7F89480910B0190910C01A0910D01D3
:10012000B0910E0126B5A89B05C02F3F19F001968E
:10013000A11DB11D3FBFBA2FA92F982F8827820F6D
:10014000911DA11DB11DBC01CD0142E0660F771FBD
:10015000881F991F4A95D1F708950F931F93CF9346
:10016000DF93CDB7DEB729970FB6F894DEBF0FBE89
:10017000CDBF0E94880000911801109119012091B3
:100180001A0130911B01DC01CB01801B910BA20BEA
:10019000B30BC297A105B10560F3F89480911101EA
:1001A000909112019A838983E0911601F0911701D1
:1001B000DF0111968081898790911301E0911C01E4
:1001C000F0911D0180911E0191FF2EC09081982B0E
:1001D00098879081809589238F838F818C8388E095
:1001E0008B8358856F8149853B812C8189819A81D8
:1001F000508347FD252F3A952083262F39F0441F41
:1002000000C000006083000000C0F2CF38E04D91D4
:1002100060830000019761F7F0931D01E0931C01DA
:1002200049873B832C8338C09081982B9887908195
:10023000809589238F838F818E8388E08D83588575
:100240006F8149853D812E8189819A81508347FD47
:10025000252F00C000C0208300C000C000C000C027
:1002600000C060830000262F3A9541F0441F000033
:1002700000C000C000C000C000C0E8CF38E04D9111
:1002800000C0608300C0019709F7F0931D01E0935F
:100290001C0149873D832E839A83898378940E9429
:1002A0008800609318017093190180931A0190934C
:1002B0001B0129960FB6F894DEBF0FBECDBFDF91AC
:1002C000CF911F910F9108951F920F920FB60F9229
:1002D00011242F933F938F939F93AF93BF9380915C
:1002E000070190910801A0910901B0910A01309194
:1002F000060123E0230F2D3720F40196A11DB11D27
:1003000005C026E8230F0296A11DB11D209306010A
:100310008093070190930801A0930901B0930A010B
:1003200080910B0190910C01A0910D01B0910E01F3
:100330000196A11DB11D80930B0190930C01A09318
:100340000D01B0930E01BF91AF919F918F913F919D
:100350002F910F900FBE0F901F901895789484B531
:10036000826084BD84B5816084BD85B5826085BDB1
:1003700085B5816085BD80916E00816080936E003F
:100380001092810080918100826080938100809131
:1003900081008160809381008091800081608093E2
:1003A00080008091B10084608093B1008091B000A2
:1003B00081608093B00080917A00846080937A009D
:1003C00080917A00826080937A0080917A008160C7
:1003D00080937A0080917A00806880937A001092EE
:1003E000C1008091140190E0FC01EC55FF4F249175
:1003F000FC01E057FF4F8491882399F090E0880F2B
:10040000991FFC01EA57FF4FA591B491FC01E458F4
:10041000FF4F859194918FB7F894EC91E22BEC9378
:100420008FBF8091140190E0FC01E859FF4F2491A7
:10043000FC01EC55FF4F3491FC01E057FF4FE49174
:10044000EE23B9F1222339F1233091F038F4213031
:10045000A9F0223001F584B58F7D12C0273091F0CC
:100460002830A1F02430B9F4809180008F7D03C042
:10047000809180008F77809380000DC084B58F7746
:1004800084BD09C08091B0008F7703C08091B00017
:100490008F7D8093B000F0E0EE0FFF1FE458FF4F18
:1004A000A591B4918FB7F894EC9130953E233C938D
:1004B0008FBF8091160190911701892B11F00E9436
:1004C000AD0070E0272E70E0372EC0E0D0E000E0F5
:1004D00010E0A12CB12C812C912C60910F01709116
:1004E00010018616970608F071C0C8010E945105D8
:1004F0006C0F653560F482E3860FC82ED12CE12C99
:10050000F12C7601DD24CC248BE2D82A9AC06A3AF9
:10051000A0F5655570E080E090E00E9458042B0142
:100520003C0120E030E040E05FE30E94E4049B01F6
:10053000AC0160E070E08CE292E40E94BA030E9499
:100540002704C62ED12CE12CF12CFE2CED2CDC2C1A
:10055000CC242AE939E949E95FE3C301B2010E94E9
:10056000E4049B01AC0160E070E087E093E40E944A
:10057000BA030E942704E62A64C06A5A70E080E049
:1005800090E00E9458042B013C012AE037ED43EA39
:100590005EE30E94E40420E030E048EB51E40E9476
:1005A000BB030E942704C62ED12CE12CF12C76012E
:1005B000DD24CC2420E030E040E05FE3C301B20161
:1005C0000E94E4040E942704D62A3BC080911601B1
:1005D00090911701892B11F00E94AD000E948800B4
:1005E0004B015C0134E1C32ED12CE12CF12C0E9493
:1005F0008800DC01CB0188199909AA09BB09883E4A
:100600009340A105B10558F021E0C21AD108E108D4
:10061000F10888EE880E83E0981EA11CB11CC1145D
:10062000D104E104F10419F72196C11585E0D8073A
:1006300009F04DCF2114310409F447CF0E94000086
:1006400044CFC701AA27BB27CD2CDE2CEF2CFF24DB
:100650002C2D60911501662371F0462F50E0489FC4
:100660009001499F300D589F300D1124832FC69E55
:10067000600111242D2DE0911601F0911701EA0D72
:10068000FB1D9091130190FF03C02083818302C062
:100690008083218312822FEF821A920A83E0A80EB0
:1006A000B11C13951ACF8CE390E0909310018093C6
:1006B0000F0184EB90E0909312018093110183E08D
:1006C0008093130186E080931401E6E9F0E0E49161
:1006D000F0E0EE0FFF1FE458FF4F85919491909347
:1006E0001D0180931C01EAEAF0E0E491E0931E0111
:1006F00084EB90E00E946B059093170180931601A4
:10070000009729F024EBFC0111922A95E9F708954E
:10071000CF93DF938091160190911701009711F00C
:100720000E9400068091140190E0FC01EC55FF4FFF
:100730002491FC01E057FF4F84918823C1F090E0A1
:10074000880F991FFC01EA57FF4FC591D491FC0116
:10075000E458FF4FA591B4919FB7F8948881E22F98
:10076000E0958E2388838C91E823EC939FBFDF91E3
:10077000CF9108955058BB27AA270E94D2030C940A
:10078000AA040E949C0438F00E94A30420F039F4CB
:100790009F3F19F426F40C9499040EF4E095E7FBBE
:1007A0000C949304E92F0E94BB0458F3BA17620714
:1007B00073078407950720F079F4A6F50C94DD04FF
:1007C0000EF4E0950B2EBA2FA02D0B01B90190016C
:1007D0000C01CA01A0011124FF27591B99F0593FB0
:1007E00050F4503E68F11A16F040A22F232F342FF8
:1007F0004427585FF3CF469537952795A795F04046
:100800005395C9F77EF41F16BA0B620B730B840B5A
:10081000BAF09150A1F0FF0FBB1F661F771F881F12
:10082000C2F70EC0BA0F621F731F841F48F487956A
:1008300077956795B795F7959E3F08F0B0CF93955C
:10084000880F08F09927EE0F9795879508950E94D5
:10085000C30488F09F5798F0B92F9927B751B0F08B
:10086000E1F0660F771F881F991F1AF0BA95C9F734
:1008700014C0B13091F00E94DD04B1E008950C94F1
:10088000DD04672F782F8827B85F39F0B93FCCF3A4
:10089000869577956795B395D9F73EF490958095B1
:1008A000709561957F4F8F4F9F4F0895E89409C0D1
:1008B00097FB3EF490958095709561957F4F8F4F93
:1008C0009F4F9923A9F0F92F96E9BB279395F695A9
:1008D000879577956795B795F111F8CFFAF4BB0F27
:1008E00011F460FF1BC06F5F7F4F8F4F9F4F16C08B
:1008F000882311F096E911C0772321F09EE8872F15
:10090000762F05C0662371F096E8862F70E060E0D0
:100910002AF09A95660F771F881FDAF7880F969549
:10092000879597F9089597F99F6780E870E060E0F0
:1009300008959FEF80EC089500240A941616170678
:1009400018060906089500240A94121613061406C0
:1009500005060895092E0394000C11F4882352F023
:10096000BB0F40F4BF2B11F460FF04C06F5F7F4FDB
:100970008F4F9F4F089557FD9058440F551F59F0C2
:100980005F3F71F04795880F97FB991F61F09F3F7C
:1009900079F087950895121613061406551FF2CFA5
:1009A0004695F1DF08C0161617061806991FF1CFF5
:1009B00086957105610508940895E894BB2766271C
:1009C0007727CB0197F908950E94F7040C94AA04A5
:1009D0000E949C0438F00E94A30420F0952311F09B
:1009E0000C9493040C94990411240C94DE040E943A
:1009F000BB0470F3959FC1F3950F50E0551F629FA4
:100A0000F001729FBB27F00DB11D639FAA27F00D67
:100A1000B11DAA1F649F6627B00DA11D661F829F8E
:100A20002227B00DA11D621F739FB00DA11D621F73
:100A3000839FA00D611D221F749F3327A00D611D90
:100A4000231F849F600D211D822F762F6A2F112472
:100A50009F5750409AF0F1F088234AF0EE0FFF1FA5
:100A6000BB1F661F771F881F91505040A9F79E3FFC
:100A7000510580F00C9493040C94DE045F3FE4F382
:100A8000983ED4F3869577956795B795F795E79552
:100A90009F5FC1F7FE2B880F911D9695879597F95B
:100AA0000895AA1BBB1B51E107C0AA1FBB1FA617B5
:100AB000B70710F0A61BB70B881F991F5A95A9F707
:100AC00080959095BC01CD010895EE0FFF1F059014
:100AD000F491E02D0994CF93DF938230910510F4C7
:100AE00082E090E0E0912101F091220120E030E0ED
:100AF000C0E0D0E0309711F140815181481759078B
:100B0000C0F04817590761F482819381209719F04A
:100B10009B838A832BC0909322018093210126C05E
:100B20002115310519F04217530718F49A01BE0137
:100B3000DF01EF010280F381E02DDCCF21153105CB
:100B400009F1281B390B2430310590F412968D9150
:100B50009C9113976115710521F0FB0193838283AA
:100B600004C09093220180932101FD01329644C07C
:100B7000FD01E20FF31F81939193225031092D93D0
:100B80003C933AC020911F0130912001232B41F466
:100B900020910201309103013093200120931F0125
:100BA00020910001309101012115310541F42DB74B
:100BB0003EB74091040150910501241B350BE09193
:100BC0001F01F0912001E217F307A0F42E1B3F0B49
:100BD0002817390778F0AC014E5F5F4F24173507AF
:100BE00048F04E0F5F1F5093200140931F018193E7
:100BF000919302C0E0E0F0E0CF01DF91CF91089542
:100C00000F931F93CF93DF93009709F48CC0FC01DF
:100C10003297138212820091210110912201011555
:100C2000110581F420813181820F931F20911F01D2
:100C3000309120012817390779F5F0932001E093CE
:100C40001F0171C0D80140E050E0AE17BF0750F45B
:100C500012962D913C911397AD012115310509F1A3
:100C6000D901F3CF9D01DA01338322836081718141
:100C7000860F971F8217930769F4EC012881398149
:100C8000260F371F2E5F3F4F318320838A819B8140
:100C900093838283452B29F4F0932201E093210171
:100CA00042C01396FC93EE931297ED01499159912E
:100CB0009E01240F351FE217F30771F480819181A3
:100CC000840F951F029611969C938E938281938137
:100CD00013969C938E931297E0E0F0E0D801129661
:100CE0008D919C911397009719F0F8018C01F6CF24
:100CF0008D919C9198012E5F3F4F820F931F209101
:100D00001F01309120012817390769F4309729F421
:100D1000109222011092210102C0138212821093BC
:100D2000200100931F01DF91CF911F910F91089532
:100D300010E0CDE5D0E004C0FE010E9465052196DB
:0A0D4000CE35D107C9F7F894FFCFB4
:060D4A00000023018000FF
:00000001FF
