:100000000C945E000C9486000C9486000C94860080
:100010000C9486000C9486000C9486000C94860048
:100020000C9486000C9486000C9486000C94860038
:100030000C9486000C9486000C9486000C94860028
:100040000C9464010C9486000C9486000C94860039
:100050000C9486000C9486000C9486000C94860008
:100060000C9486000C948600000000080002010039
:100070000003040700000000000000000000000072
:10008000250028002B0000000000240027002A0083
:10009000040404040404040402020202020203032E
:1000A0000303030301020408102040800102040836
:1000B000102001020408102018034D0311241FBE54
:1000C000CFEFD8E0DEBFCDBF21E0A6E0B1E001C0B8
:1000D0001D92A332B207E1F711E0A0E0B1E0E6EA39
:1000E000F9E002C005900D92A630B107D9F710E0F3
:1000F000CDE5D0E004C02197FE010E949303CC35EA
:10010000D107C9F70E94AE010C94C6040C940000FC
:100110003FB7F89480910B0190910C01A0910D01D3
:10012000B0910E0126B5A89B05C02F3F19F001968E
:10013000A11DB11D3FBFBA2FA92F982F8827820F6D
:10014000911DA11DB11DBC01CD0142E0660F771FBD
:10015000881F991F4A95D1F708950F931F93CF9346
:10016000DF93CDB7DEB729970FB6F894DEBF0FBE89
:10017000CDBF0E94880000911801109119012091B3
:100180001A0130911B01DC01CB01801B910BA20BEA
:10019000B30BC297A105B10560F3F89480911101EA
:1001A000909112019A838983E0911601F0911701D1
:1001B000DF0111968081898790911301E0911C01E4
:1001C000F0911D0180911E0191FF2EC09081982B0E
:1001D00098879081809589238F838F818C8388E095
:1001E0008B8358856F8149853B812C8189819A81D8
:1001F000508347FD252F3A952083262F39F0441F41
:1002000000C000006083000000C0F2CF38E04D91D4
:1002100060830000019761F7F0931D01E0931C01DA
:1002200049873B832C8338C09081982B9887908195
:10023000809589238F838F818E8388E08D83588575
:100240006F8149853D812E8189819A81508347FD47
:10025000252F00C000C0208300C000C000C000C027
:1002600000C060830000262F3A9541F0441F000033
:1002700000C000C000C000C000C0E8CF38E04D9111
:1002800000C0608300C0019709F7F0931D01E0935F
:100290001C0149873D832E839A83898378940E9429
:1002A0008800609318017093190180931A0190934C
:1002B0001B0129960FB6F894DEBF0FBECDBFDF91AC
:1002C000CF911F910F9108951F920F920FB60F9229
:1002D00011242F933F938F939F93AF93BF9380915C
:1002E000070190910801A0910901B0910A01309194
:1002F000060123E0230F2D3720F40196A11DB11D27
:1003000005C026E8230F0296A11DB11D209306010A
:100310008093070190930801A0930901B0930A010B
:1003200080910B0190910C01A0910D01B0910E01F3
:100330000196A11DB11D80930B0190930C01A09318
:100340000D01B0930E01BF91AF919F918F913F919D
:100350002F910F900FBE0F901F901895789484B531
:10036000826084BD84B5816084BD85B5826085BDB1
:1003700085B5816085BD80916E00816080936E003F
:100380001092810080918100826080938100809131
:1003900081008160809381008091800081608093E2
:1003A00080008091B10084608093B1008091B000A2
:1003B00081608093B00080917A00846080937A009D
:1003C00080917A00826080937A0080917A008160C7
:1003D00080937A0080917A00806880937A001092EE
:1003E000C1008091140190E0FC01EC55FF4F249175
:1003F000FC01E057FF4F8491882399F090E0880F2B
:10040000991FFC01EA57FF4FA591B491FC01E458F4
:10041000FF4F859194918FB7F894EC91E22BEC9378
:100420008FBF8091140190E0FC01E859FF4F2491A7
:10043000FC01EC55FF4F3491FC01E057FF4FE49174
:10044000EE23B9F1222339F1233091F038F4213031
:10045000A9F0223001F584B58F7D12C0273091F0CC
:100460002830A1F02430B9F4809180008F7D03C042
:10047000809180008F77809380000DC084B58F7746
:1004800084BD09C08091B0008F7703C08091B00017
:100490008F7D8093B000F0E0EE0FFF1FE458FF4F18
:1004A000A591B4918FB7F894EC9130953E233C938D
:1004B0008FBF8091160190911701892B11F00E9436
:1004C000AD0000E010E0C0E0D0E0E0E0F0E0E12CC2
:1004D000F12C20E030E060910F017091100126179F
:1004E000370780F5CF010E947F036C0F653568F4F4
:1004F000462F440F460F842F809550E060E070E057
:10050000BA0155274427582B58C06A3A58F4655504
:10051000462F440F460F842F809550E060E070E036
:10052000682B4BC06A5A462F440F640F462F4095E4
:10053000842F90E0A0E0B0E05C016D01B62AB60126
:10054000A5013BC08091160190911701892B11F0F4
:100550000E94AD000E9488002B013C012EE1822EFA
:10056000912CA12CB12C0E948800DC01CB018419B4
:100570009509A609B709883E9340A105B10558F031
:1005800021E0821A9108A108B10888EE480E83E0A4
:10059000581E611C711C81149104A104B10419F747
:1005A0002196C11585E0D80709F08FCF01151105F7
:1005B00009F489CF0E94000086CF4B01AA24BB24F6
:1005C000452E562E672E7724842DD42EC0901501EB
:1005D000CC2091F0AC2DB0E0A89DC001A99D900D5C
:1005E000B89D900D1124892E4C9C20011124852D3D
:1005F0004C9DA0011124D52EA0911601B091170198
:10060000AE0DBF1D9091130190FF05C08C93119604
:100610008C92119704C08C9211968C93119712961C
:10062000DC922F5F3F4F83E0E80EF11CF39553CF30
:100630008CE390E09093100180930F0184EB90E0A5
:10064000909312018093110183E08093130186E05F
:1006500080931401E6E9F0E0E491F0E0EE0FFF1F73
:10066000E458FF4F8591949190931D0180931C0154
:10067000EAEAF0E0E491E0931E0184EB90E00E944E
:1006800099039093170180931601009729F024EBAA
:10069000FC0111922A95E9F70895CF93DF93809199
:1006A000160190911701009711F00E942E0480917D
:1006B000140190E0FC01EC55FF4F2491FC01E05740
:1006C000FF4F84918823C1F090E0880F991FFC01AF
:1006D000EA57FF4FC591D491FC01E458FF4FA59113
:1006E000B4919FB7F8948881E22FE0958E23888398
:1006F0008C91E823EC939FBFDF91CF910895AA1BC3
:10070000BB1B51E107C0AA1FBB1FA617B70710F0FC
:10071000A61BB70B881F991F5A95A9F7809590952E
:10072000BC01CD010895EE0FFF1F0590F491E02D5F
:100730000994CF93DF938230910510F482E090E02A
:10074000E0912101F091220120E030E0C0E0D0E012
:10075000309711F14081518148175907C0F048176F
:10076000590761F482819381209719F09B838A83D2
:100770002BC0909322018093210126C021153105C1
:1007800019F04217530718F49A01BE01DF01EF0177
:100790000280F381E02DDCCF2115310509F1281B02
:1007A000390B2430310590F412968D919C9113975A
:1007B0006115710521F0FB019383828304C090933E
:1007C000220180932101FD01329644C0FD01E20F18
:1007D000F31F81939193225031092D933C933AC09A
:1007E00020911F0130912001232B41F4209102011F
:1007F000309103013093200120931F0120910001CB
:10080000309101012115310541F42DB73EB74091DA
:10081000040150910501241B350BE0911F01F0915B
:100820002001E217F307A0F42E1B3F0B281739070E
:1008300078F0AC014E5F5F4F2417350748F04E0F3C
:100840005F1F5093200140931F018193919302C039
:10085000E0E0F0E0CF01DF91CF9108950F931F9377
:10086000CF93DF93009709F48CC0FC013297138279
:10087000128200912101109122010115110581F4CC
:1008800020813181820F931F20911F01309120011F
:100890002817390779F5F0932001E0931F0171C003
:1008A000D80140E050E0AE17BF0750F412962D91EA
:1008B0003C911397AD012115310509F1D901F3CF11
:1008C0009D01DA013383228360817181860F971F36
:1008D0008217930769F4EC0128813981260F371FAD
:1008E0002E5F3F4F318320838A819B819383828354
:1008F000452B29F4F0932201E093210142C0139685
:10090000FC93EE931297ED01499159919E01240FAA
:10091000351FE217F30771F480819181840F951FD1
:10092000029611969C938E938281938113969C9349
:100930008E931297E0E0F0E0D80112968D919C9191
:100940001397009719F0F8018C01F6CF8D919C91C7
:1009500098012E5F3F4F820F931F20911F0130910E
:1009600020012817390769F4309729F410922201E1
:100970001092210102C01382128210932001009371
:100980001F01DF91CF911F910F91089510E0CDE5E8
:10099000D0E004C0FE010E9493032196CE35D1071A
:0609A000C9F7F894FFCF37
:0609A600000023018000A7
:00000001FF
