:100000000C945E000C9486000C9486000C94860080
:100010000C9486000C9486000C9486000C94860048
:100020000C9486000C9486000C9486000C94860038
:100030000C9486000C9486000C9486000C94860028
:100040000C9464010C9486000C9486000C94860039
:100050000C9486000C9486000C9486000C94860008
:100060000C9486000C948600000000080002010039
:100070000003040700000000000000000000000072
:10008000250028002B0000000000240027002A0083
:10009000040404040404040402020202020203032E
:1000A0000303030301020408102040800102040836
:1000B0001020010204081020CB02000311241FBEEF
:1000C000CFEFD8E0DEBFCDBF21E0A6E0B1E001C0B8
:1000D0001D92A332B207E1F711E0A0E0B1E0E4EE37
:1000E000F8E002C005900D92A630B107D9F710E0F4
:1000F000CDE5D0E004C02197FE010E943203CC354B
:10010000D107C9F70E94AE010C9465040C9400005D
:100110003FB7F89480910B0190910C01A0910D01D3
:10012000B0910E0126B5A89B05C02F3F19F001968E
:10013000A11DB11D3FBFBA2FA92F982F8827820F6D
:10014000911DA11DB11DBC01CD0142E0660F771FBD
:10015000881F991F4A95D1F708950F931F93CF9346
:10016000DF93CDB7DEB729970FB6F894DEBF0FBE89
:10017000CDBF0E94880000911801109119012091B3
:100180001A0130911B01DC01CB01801B910BA20BEA
:10019000B30BC297A105B10560F3F89480911101EA
:1001A000909112019A838983E0911601F0911701D1
:1001B000DF0111968081898790911301E0911C01E4
:1001C000F0911D0180911E0191FF2EC09081982B0E
:1001D00098879081809589238F838F818C8388E095
:1001E0008B8358856F8149853B812C8189819A81D8
:1001F000508347FD252F3A952083262F39F0441F41
:1002000000C000006083000000C0F2CF38E04D91D4
:1002100060830000019761F7F0931D01E0931C01DA
:1002200049873B832C8338C09081982B9887908195
:10023000809589238F838F818E8388E08D83588575
:100240006F8149853D812E8189819A81508347FD47
:10025000252F00C000C0208300C000C000C000C027
:1002600000C060830000262F3A9541F0441F000033
:1002700000C000C000C000C000C0E8CF38E04D9111
:1002800000C0608300C0019709F7F0931D01E0935F
:100290001C0149873D832E839A83898378940E9429
:1002A0008800609318017093190180931A0190934C
:1002B0001B0129960FB6F894DEBF0FBECDBFDF91AC
:1002C000CF911F910F9108951F920F920FB60F9229
:1002D00011242F933F938F939F93AF93BF9380915C
:1002E000070190910801A0910901B0910A01309194
:1002F000060123E0230F2D3720F40196A11DB11D27
:1003000005C026E8230F0296A11DB11D209306010A
:100310008093070190930801A0930901B0930A010B
:1003200080910B0190910C01A0910D01B0910E01F3
:100330000196A11DB11D80930B0190930C01A09318
:100340000D01B0930E01BF91AF919F918F913F919D
:100350002F910F900FBE0F901F901895789484B531
:10036000826084BD84B5816084BD85B5826085BDB1
:1003700085B5816085BD80916E00816080936E003F
:100380001092810080918100826080938100809131
:1003900081008160809381008091800081608093E2
:1003A00080008091B10084608093B1008091B000A2
:1003B00081608093B00080917A00846080937A009D
:1003C00080917A00826080937A0080917A008160C7
:1003D00080937A0080917A00806880937A001092EE
:1003E000C1008091140190E0FC01EC55FF4F249175
:1003F000FC01E057FF4F8491882399F090E0880F2B
:10040000991FFC01EA57FF4FA591B491FC01E458F4
:10041000FF4F859194918FB7F894EC91E22BEC9378
:100420008FBF8091140190E0FC01E859FF4F2491A7
:10043000FC01EC55FF4F3491FC01E057FF4FE49174
:10044000EE23B9F1222339F1233091F038F4213031
:10045000A9F0223001F584B58F7D12C0273091F0CC
:100460002830A1F02430B9F4809180008F7D03C042
:10047000809180008F77809380000DC084B58F7746
:1004800084BD09C08091B0008F7703C08091B00017
:100490008F7D8093B000F0E0EE0FFF1FE458FF4F18
:1004A000A591B4918FB7F894EC9130953E233C938D
:1004B0008FBF8091160190911701892B11F00E9436
:1004C000AD0090E0E92E90E0F92E00E010E0C0E0F1
:1004D000D0E080910F0190911001C817D90708F062
:1004E00053C080911501882359F094E1899F9001B0
:1004F0001124232F3FE7839FC0011124892F02C0BD
:100500008FE724E1E0911601F0911701E00FF11F50
:100510009091130190FF03C08083218302C0208348
:10052000818322838091160190911701892B11F00C
:100530000E94AD000E9488002B013C0182E3882EBE
:10054000912CA12CB12C0E948800DC01CB018419D4
:100550009509A609B709883E9340A105B10558F051
:1005600081E0881A9108A108B10898EE490E93E03D
:10057000591E611C711C81149104A104B10419F766
:1005800021960D5F1F4FA5CFE114F10409F49DCF13
:100590000E9400009ACF8CE390E09093100180932A
:1005A0000F0184EB90E0909312018093110183E09E
:1005B0008093130186E080931401E6E9F0E0E49172
:1005C000F0E0EE0FFF1FE458FF4F85919491909358
:1005D0001D0180931C01EAEAF0E0E491E0931E0122
:1005E00084EB90E00E9438039093170180931601EA
:1005F000009729F024EBFC0111922A95E9F7089560
:10060000CF93DF938091160190911701009711F01D
:100610000E94CD038091140190E0FC01EC55FF4F46
:100620002491FC01E057FF4F84918823C1F090E0B2
:10063000880F991FFC01EA57FF4FC591D491FC0127
:10064000E458FF4FA591B4919FB7F8948881E22FA9
:10065000E0958E2388838C91E823EC939FBFDF91F4
:10066000CF910895EE0FFF1F0590F491E02D0994AE
:10067000CF93DF938230910510F482E090E0E09117
:100680002101F091220120E030E0C0E0D0E030977D
:1006900011F14081518148175907C0F04817590797
:1006A00061F482819381209719F09B838A832BC008
:1006B000909322018093210126C02115310519F064
:1006C0004217530718F49A01BE01DF01EF010280BF
:1006D000F381E02DDCCF2115310509F1281B390B01
:1006E0002430310590F412968D919C9113976115E9
:1006F000710521F0FB019383828304C09093220152
:1007000080932101FD01329644C0FD01E20FF31FE9
:1007100081939193225031092D933C933AC02091BB
:100720001F0130912001232B41F4209102013091CF
:1007300003013093200120931F012091000130918B
:1007400001012115310541F42DB73EB74091040157
:1007500050910501241B350BE0911F01F091200100
:10076000E217F307A0F42E1B3F0B2817390778F088
:10077000AC014E5F5F4F2417350748F04E0F5F1FE7
:100780005093200140931F018193919302C0E0E0B8
:10079000F0E0CF01DF91CF9108950F931F93CF9396
:1007A000DF93009709F48CC0FC0132971382128208
:1007B00000912101109122010115110581F4208180
:1007C0003181820F931F20911F0130912001281742
:1007D000390779F5F0932001E0931F0171C0D8012A
:1007E00040E050E0AE17BF0750F412962D913C91B7
:1007F0001397AD012115310509F1D901F3CF9D0101
:10080000DA013383228360817181860F971F8217FB
:10081000930769F4EC0128813981260F371F2E5F79
:100820003F4F318320838A819B8193838283452B31
:1008300029F4F0932201E093210142C01396FC9326
:10084000EE931297ED01499159919E01240F351FA6
:10085000E217F30771F480819181840F951F02964E
:1008600011969C938E938281938113969C938E9381
:100870001297E0E0F0E0D80112968D919C911397C9
:10088000009719F0F8018C01F6CF8D919C91980199
:100890002E5F3F4F820F931F20911F013091200147
:1008A0002817390769F4309729F410922201109221
:1008B000210102C0138212821093200100931F01B4
:1008C000DF91CF911F910F91089510E0CDE5D0E019
:1008D00004C0FE010E9432032196CE35D107C9F72C
:0408E000F894FFCFBA
:0608E4000000230180006A
:00000001FF
